{

    "changwats": [
	{
        "pid": "1901011099",
        "name": "เทศบาลเมืองสระบุรี"
     },
	 {
        "pid": "1901052001",
        "name": "อบต. ดาวเรือง"
     },
	{
        "pid": "1901062001",
        "name": "อบต. ดาวเรือง"
     },
	 {
        "pid": "1901072002",
        "name": "อบต. โคกสว่าง"
     },
	 {
        "pid": "1901081095",
        "name": "เทศบาลป๊อกแป๊ก"
     },
	 {
        "pid": "1901092003",
        "name": "อบต. หนองโน"
     },
	 {
        "pid": "1901092004",
        "name": "อบต. หนองยาว"
     },
	 {
        "pid": "1901102005",
        "name": "อบต. ปากข้าวสาร"
     },
	 {
        "pid": "1901112006",
        "name": "อบต. หนองปลาไหล"
     },
	 {
        "pid": "1901121078",
        "name": "เทศบาลตำบลกุดนกเปล้า"
     },
	 {
        "pid": "1901132007",
        "name": "อบต. ตลิ่งชัน"
     },
	 {
        "pid": "1901141077",
        "name": "เทศบาลตำบลตะกุด"
     },
	 {
        "pid": "1902011098",
        "name": "เทศบาลเมืองแก่งคอย"
     },
	 {
        "pid": "1902021094",
        "name": "เทศบาลเมืองทับกวาง"
     },
	 {
        "pid": "1902032001",
        "name": "อบต. ตาลเดี่ยว"
     },
	  {
        "pid": "1902042002",
        "name": "อบต. ห้วยแห้ง"
     },
	  {
        "pid": "1902052003",
        "name": "อบต. ท่าคล้อ"
     },
	 {
        "pid": "1902062004",
        "name": "อบต. หินช้อน"
     },
	 {
        "pid": "1902072005",
        "name": "อบต. ท่าตูม"
     },
	 {
        "pid": "1902082006",
        "name": "อบต. บ้านป่า"
     },
	  {
        "pid": "1902092006",
        "name": "อบต. ท่าตูม"
     },
	 {
        "pid": "1902102007",
        "name": "อบต. ชะอม"
     },
	 {
        "pid": "1902112008",
        "name": "อบต. สองคอน"
     },
	  {
        "pid": "1902122009",
        "name": "อบต. เตาปูน"
     },
	  {
        "pid": "1902132010",
        "name": "อบต. ชำผักแพว"
     },
	 {
        "pid": "1902152011",
        "name": "อบต. ท่ามะปราง"
     },
	 {
        "pid": "1903011097",
        "name": "เทศบาลตำบลหนองแค"
     },
	  {
        "pid": "1903022001",
        "name": "อบต. กุ่มหัก"
     },
	 {
        "pid": "1903031093",
        "name": "เทศบาลตำบลคชสิทธิ์"
     },
	 {
        "pid": "1903032002",
        "name": "อบต. คชสิทธิ์"
     },
	 {
        "pid": "1903042003",
        "name": "อบต. โคกตูม"
     },
	 {
        "pid": "1903052004",
        "name": "อบต. โคกแย้"
     },
	 {
        "pid": "1903062005",
        "name": "อบต. บัวลอย"
     },
	 {
        "pid": "1903071076",
        "name": "เทศบาลตำบลไผ่ต่ำ"
     },
	 {
        "pid": "1903082003",
        "name": "อบต. โคกตูม"
     },
	 {
        "pid": "1903091092",
        "name": "เทศบาลตำบลหินกอง"
     },
	 {
        "pid": "1903092006",
        "name": "อบต. ห้วยขมิ้น"
     },
	 {
        "pid": "1903101092",
        "name": "เทศบาลตำบลหินกอง"
     },
	 {
        "pid": "1903102007",
        "name": "อบต. ห้วยทราย"
     },
	 {
        "pid": "1903102007",
        "name": "อบต. ห้วยทราย"
     },
	 {
        "pid": "1903111092",
        "name": "เทศบาลตำบลหินกอง"
     },
	 {
        "pid": "1903112008",
        "name": "อบต. หนองไข่น้ำ"
     },
	 {
        "pid": "1903122009",
        "name": "อบต. หนองแขม"
     },
	 {
        "pid": "1903132010",
        "name": "อบต. หนองจิก"
     },
	 {
        "pid": "1903142011",
        "name": "อบต. หนองจรเข้"
     },
	  {
        "pid": "1903152012",
        "name": "อบต. หนองนาก"
     },
	 {
        "pid": "1903162013",
        "name": "อบต. หนองปลาหมอ"
     },
	 {
        "pid": "1903172014",
        "name": "อบต. หนองปลิง"
     },
	 {
        "pid": "1903182015",
        "name": "อบต. หนองโรง"
     },
	 {
        "pid": "1904011090",
        "name": "เทศบาลตำบลหนองหมู"
     },
	 {
        "pid": "1904012001",
        "name": "อบต. หนองหมู"
     },
	 {
        "pid": "1904021091",
        "name": "เทศบาลตำบลวิหารแดง"
     },
	 {
        "pid": "1904022002",
        "name": "อบต. บ้านลำ"
     },
	  {
        "pid": "1904031091",
        "name": "เทศบาลตำบลวิหารแดง"
     },
	 {
        "pid": "1904032003",
        "name": "อบต. คลองเรือ"
     },
	 {
        "pid": "1904041091",
        "name": "เทศบาลตำบลวิหารแดง"
     },
	 {
        "pid": "1904041090",
        "name": "เทศบาลตำบลหนองหมู"
     },
	 {
        "pid": "190402004",
        "name": "อบต. วิหารแดง"
     },
	 {
        "pid": "190401091",
        "name": "เทศบาลตำบลวิหารแดง"
     },
	 {
        "pid": "1904051090",
        "name": "เทศบาลตำบลหนองหมู"
     },
	 {
	    "pid": "1904052005",
        "name": "อบต. หนองสรวง"
     },
	 {
        "pid": "1904061091",
        "name": "เทศบาลตำบลวิหารแดง"
     },
	  {
        "pid": "1904062006",
        "name": "อบต. เจริญธรรม"
     },
	 {
        "pid": "1905011089",
        "name": "เทศบาลตำบลหนองแซง"
     },
	 {
        "pid": "1905021089",
        "name": "เทศบาลตำบลหนองแซง"
     },
	 {
        "pid": "1905022001",
        "name": "อบต. หนองกบ"
     },
	 {
        "pid": "1905032002",
        "name": "อบต. หนองหัวโพ"
     },
	 {
        "pid": "1905042002",
        "name": "อบต. หนองหัวโพ"
     },
	 {
        "pid": "1905052001",
        "name": "อบต. หนองกบ"
     },
	 {
        "pid": "1905061089",
        "name": "เทศบาลตำบลหนองแซง"
     },
	  {
        "pid": "1905062003",
        "name": "อบต. ไก่เส่า"
     },
	 {
        "pid": "1905072004",
        "name": "อบต. โคกสะอาด"
     },
	 {
        "pid": "1905082005",
        "name": "อบต. ม่วงหวาน"
     },
	 {
        "pid": "1905092005",
        "name": "อบต. ม่วงหวาน"
     },
	 {
        "pid": "1906011087",
        "name": "เทศบาลตำบลบ้านหมอ"
     },
	 {
        "pid": "1906012001",
        "name": "อบต. เมืองขีดขิน"
     },
	  {
        "pid": "1906021069",
        "name": "เทศบาลตำบลบางโขมด"
     },
	  {
        "pid": "1906031068",
        "name": "เทศบาลตำบลบางโขมด"
     },
	 {
        "pid": "1906041072",
        "name": "เทศบาลตำบลตลาดน้อย"
     },
	 {
        "pid": "1906052005",
        "name": "อบต. โคกใหญ่"
     },
	 {
        "pid": "1906062005",
        "name": "อบต. โคกใหญ่"
     },
	 {
        "pid": "1906072006",
        "name": "อบต. ไผ่ขวาง"
     },
	 {
        "pid": "1906081088",
        "name": "เทศบาลตำบลท่าลาน"
     },
	 {
        "pid": "1906091063",
        "name": "เทศบาลตำบลหนองบัว"
     },
	 {
        "pid": "1907011086",
        "name": "เทศบาลตำบลดอนพุด"
     },
	 {
        "pid": "1907021086",
        "name": "เทศบาลตำบลดอนพุด"
     },
	 {
        "pid": "1907031086",
        "name": "เทศบาลตำบลดอนพุด"
     },
	 {
        "pid": "1907042001",
        "name": "อบต. ดงตะงาว"
     },
	  {
        "pid": "1908011085",
        "name": "อบต. ดงตะงาว"
     },
	  {
        "pid": "1908012001",
        "name": "อบต. หนองโคน"
     },
	 {
        "pid": "1908022002",
        "name": "อบต. บ้านกลับ"
     },
	  {
        "pid": "1908032003",
        "name": "อบต. ดอนทอง"
     },
	 {
        "pid": "1908042002",
        "name": "อบต. บ้านกลับ"
     },
	 {
        "pid": "1909011096",
        "name": "เทศบาลตำบลพระพุทธบาท"
     },
	 {
        "pid": "1909021096",
        "name": "เทศบาลตำบลพระพุทธบาท"
     },
	 {
        "pid": "1909031096",
        "name": "เทศบาลตำบลพระพุทธบาท"
     },
	 {
        "pid": "1909031067",
        "name": "เทศบาลตำบลธารเกษม"
     },
	 {
        "pid": "1909031067",
        "name": "เทศบาลตำบลธารเกษม"
     },
	 {
        "pid": "1909041062",
        "name": "เทศบาลตำบลนายาว"
     },
	 {
        "pid": "1909051096",
        "name": "เทศบาลตำบลพระพุทธบาท"
     },
	 {
        "pid": "1909052003",
        "name": "อบต. พุคำจาน"
     },
	 {
        "pid": "1909062004",
        "name": "อบต. เขาวง"
     },
	 {
        "pid": "1909071064",
        "name": "เทศบาลตำบลห้วยป่าหวาย"
     },
	 {
        "pid": "1909081074",
        "name": "เทศบาลตำบลพุกร่าง"
     },
	 {
        "pid": "1909091065",
        "name": "เทศบาลตำบลหนองแก"
     },
	 {
        "pid": "1910011082",
        "name": "เทศบาลตำบลเสาให้"
     },
	  {
        "pid": "1910021084",
        "name": "เทศบาลตำบลบ้านยาง"
     },
	 {
        "pid": "1910022001",
        "name": "อบต. บ้านยาง"
     },
	 {
        "pid": "1910031070",
        "name": "เทศบาลตำบลหัวปลวก"
     },
	 {
        "pid": "1910042003",
        "name": "อบต. ช้างไทยงาม"
     },
	 {
        "pid": "1910052003",
        "name": "อบต. ช้างไทยงาม"
     },
	 {
        "pid": "1910061071",
        "name": "เทศบาลตำบลต้านตาล-พระยาท"
     },
	 {
        "pid": "1910072003",
        "name": "อบต. ช้างไทยงาม"
     },
	 {
        "pid": "1910081071",
        "name": "อบต. ช้างไทยงาม"
     },
	 {
        "pid": "1910092005",
        "name": "อบต. ม่วงงาม"
     },
	 {
        "pid": "1910102006",
        "name": "อบต. เริงราง"
     },
	 {
        "pid": "1910111073",
        "name": "เทศบาลตำบลเมืองเก่า"
     },
	 {
        "pid": "1910121083",
        "name": "เทศบาลตำบลสวนดอกไม้"
     },
	 {
        "pid": "1911011081",
        "name": "เทศบาลตำบลสวนมวกเหล็ก"
     },
	 {
        "pid": "1911012001",
        "name": "อบต. มวกเหล็ก"
     },
	 {
        "pid": "1911021081",
        "name": "เทศบาลตำบลสวนมวกเหล็ก"
     },
	 {
        "pid": "1911022002",
        "name": "อบต. มิตรภาพ"
     },
	 {
        "pid": "1911042003",
        "name": "อบต. หนองย่างเสือ"
     },
	 {
        "pid": "1911052004",
        "name": "อบต. ลำสมพุง"
     },
	  {
        "pid": "1911072005",
        "name": "อบต. ลำพญากลาง"
     },
	 {
        "pid": "1911092006",
        "name": "อบต. ซับสนุ่น"
     },
	 {
        "pid": "1912011066",
        "name": "เทศบาลตำบลแสลงพัน"
     },
	 {
        "pid": "1912021080",
        "name": "เทศบาลตำบลวังม่วง"
     },
	 {
        "pid": "1912021075",
        "name": "เทศบาลตำบลคำพราน"
     },
	 {
        "pid": "1912031080",
        "name": "เทศบาลตำบลวังม่วง"
     },
	  {
        "pid": "1912032002",
        "name": "อบต. วังม่วง"
     },
	  {
        "pid": "1913012001",
        "name": "อบต. เขาดินพัฒนา"
     },
	 {
        "pid": "1913022002",
        "name": "อบต. บ้านแก้ง"
     },
	 {
        "pid": "1913032003",
        "name": "อบต. ผึ้งรวง"
     },
	 {
        "pid": "1913042004",
        "name": "อบต. พุแค"
     },
	  {
        "pid": "1913052005",
        "name": "อบต. ห้วยบง"
     },
	 {
        "pid": "1913061079",
        "name": "เทศบาลตำบลหน้าพระลาน"
     },
	 {
        "pid": "1913062006",
        "name": "อบต. หน้าพระลาน"
     }
	]
}